^C:\USERS\BLACKEY\DESKTOP\FIREBREATH-FIREBREATH-FIREBREATH-1.7.0-12-G105DCC6\FIREBREATH-FIREBREATH-105DCC6\BUILD\PROJECTS\ANANAS\CREDENTIALS.CPP
/c /I"C:\Users\blackey\Desktop\firebreath-FireBreath-firebreath-1.7.0-12-g105dcc6\firebreath-FireBreath-105dcc6" /I"C:\Users\blackey\Desktop\firebreath-FireBreath-firebreath-1.7.0-12-g105dcc6\firebreath-FireBreath-105dcc6\src\3rdParty\gecko-sdk\includes" /I"C:\Users\blackey\Desktop\firebreath-FireBreath-firebreath-1.7.0-12-g105dcc6\firebreath-FireBreath-105dcc6\src\NpapiCore" /I"C:\Users\blackey\Desktop\firebreath-FireBreath-firebreath-1.7.0-12-g105dcc6\firebreath-FireBreath-105dcc6\src\ActiveXCore" /I"C:\Users\blackey\Desktop\firebreath-FireBreath-firebreath-1.7.0-12-g105dcc6\firebreath-FireBreath-105dcc6\src\ScriptingCore" /I"C:\Users\blackey\Desktop\firebreath-FireBreath-firebreath-1.7.0-12-g105dcc6\firebreath-FireBreath-105dcc6\src\PluginAuto\Win" /I"C:\Users\blackey\Desktop\firebreath-FireBreath-firebreath-1.7.0-12-g105dcc6\firebreath-FireBreath-105dcc6\src\PluginAuto" /I"C:\Users\blackey\Desktop\firebreath-FireBreath-firebreath-1.7.0-12-g105dcc6\firebreath-FireBreath-105dcc6\src\PluginCore" /I"C:\Users\blackey\Desktop\firebreath-FireBreath-firebreath-1.7.0-12-g105dcc6\firebreath-FireBreath-105dcc6\build\projects\Ananas\gen" /I"C:\Users\blackey\Desktop\firebreath-FireBreath-firebreath-1.7.0-12-g105dcc6\firebreath-FireBreath-105dcc6\src\3rdParty\boost" /I"C:\Program Files\Microsoft Visual Studio 10.0\VC\atlmfc\include" /I"C:\Users\blackey\Desktop\firebreath-FireBreath-firebreath-1.7.0-12-g105dcc6\firebreath-FireBreath-105dcc6\src\config" /I"C:\Program Files\Pelco\API\Include\C++" /I"C:\Users\blackey\Desktop\firebreath-FireBreath-firebreath-1.7.0-12-g105dcc6\firebreath-FireBreath-105dcc6\build\projects\Ananas\\" /Zi /nologo /W3 /WX- /Od /Oy- /D WIN32 /D _WINDLL /D FB_WIN=1 /D XP_WIN=1 /D UNICODE /D _UNICODE /D _WINDOWS /D BOOST_ALL_NO_LIB=1 /D DEBUG /D _DEBUG /D _ATL_STATIC_REGISTRY /D "CMAKE_INTDIR=\"Debug\"" /D Ananas_EXPORTS /D _WINDLL /D _UNICODE /D UNICODE /GF /Gm /EHsc /RTC1 /MTd /GS /fp:precise /Zc:wchar_t /Zc:forScope /Fo"Ananas.dir\Debug\\" /Fd"Ananas.dir\Debug\vc100.pdb" /Gd /TP /wd4996 /wd4290 /analyze- /errorReport:prompt  /Zm256  C:\USERS\BLACKEY\DESKTOP\FIREBREATH-FIREBREATH-FIREBREATH-1.7.0-12-G105DCC6\FIREBREATH-FIREBREATH-105DCC6\BUILD\PROJECTS\ANANAS\CREDENTIALS.CPP
^C:\USERS\BLACKEY\DESKTOP\FIREBREATH-FIREBREATH-FIREBREATH-1.7.0-12-G105DCC6\FIREBREATH-FIREBREATH-105DCC6\BUILD\PROJECTS\ANANAS\MD5.CPP
/c /I"C:\Users\blackey\Desktop\firebreath-FireBreath-firebreath-1.7.0-12-g105dcc6\firebreath-FireBreath-105dcc6" /I"C:\Users\blackey\Desktop\firebreath-FireBreath-firebreath-1.7.0-12-g105dcc6\firebreath-FireBreath-105dcc6\src\3rdParty\gecko-sdk\includes" /I"C:\Users\blackey\Desktop\firebreath-FireBreath-firebreath-1.7.0-12-g105dcc6\firebreath-FireBreath-105dcc6\src\NpapiCore" /I"C:\Users\blackey\Desktop\firebreath-FireBreath-firebreath-1.7.0-12-g105dcc6\firebreath-FireBreath-105dcc6\src\ActiveXCore" /I"C:\Users\blackey\Desktop\firebreath-FireBreath-firebreath-1.7.0-12-g105dcc6\firebreath-FireBreath-105dcc6\src\ScriptingCore" /I"C:\Users\blackey\Desktop\firebreath-FireBreath-firebreath-1.7.0-12-g105dcc6\firebreath-FireBreath-105dcc6\src\PluginAuto\Win" /I"C:\Users\blackey\Desktop\firebreath-FireBreath-firebreath-1.7.0-12-g105dcc6\firebreath-FireBreath-105dcc6\src\PluginAuto" /I"C:\Users\blackey\Desktop\firebreath-FireBreath-firebreath-1.7.0-12-g105dcc6\firebreath-FireBreath-105dcc6\src\PluginCore" /I"C:\Users\blackey\Desktop\firebreath-FireBreath-firebreath-1.7.0-12-g105dcc6\firebreath-FireBreath-105dcc6\build\projects\Ananas\gen" /I"C:\Users\blackey\Desktop\firebreath-FireBreath-firebreath-1.7.0-12-g105dcc6\firebreath-FireBreath-105dcc6\src\3rdParty\boost" /I"C:\Program Files\Microsoft Visual Studio 10.0\VC\atlmfc\include" /I"C:\Users\blackey\Desktop\firebreath-FireBreath-firebreath-1.7.0-12-g105dcc6\firebreath-FireBreath-105dcc6\src\config" /I"C:\Program Files\Pelco\API\Include\C++" /I"C:\Users\blackey\Desktop\firebreath-FireBreath-firebreath-1.7.0-12-g105dcc6\firebreath-FireBreath-105dcc6\build\projects\Ananas\\" /Zi /nologo /W3 /WX- /Od /Oy- /D WIN32 /D _WINDLL /D FB_WIN=1 /D XP_WIN=1 /D UNICODE /D _UNICODE /D _WINDOWS /D BOOST_ALL_NO_LIB=1 /D DEBUG /D _DEBUG /D _ATL_STATIC_REGISTRY /D "CMAKE_INTDIR=\"Debug\"" /D Ananas_EXPORTS /D _WINDLL /D _UNICODE /D UNICODE /GF /Gm /EHsc /RTC1 /MTd /GS /fp:precise /Zc:wchar_t /Zc:forScope /Fo"Ananas.dir\Debug\\" /Fd"Ananas.dir\Debug\vc100.pdb" /Gd /TP /wd4996 /wd4290 /analyze- /errorReport:prompt  /Zm256  C:\USERS\BLACKEY\DESKTOP\FIREBREATH-FIREBREATH-FIREBREATH-1.7.0-12-G105DCC6\FIREBREATH-FIREBREATH-105DCC6\BUILD\PROJECTS\ANANAS\MD5.CPP
^C:\USERS\BLACKEY\DESKTOP\FIREBREATH-FIREBREATH-FIREBREATH-1.7.0-12-G105DCC6\FIREBREATH-FIREBREATH-105DCC6\BUILD\PROJECTS\ANANAS\SDKWRAPPER.CPP
/c /I"C:\Users\blackey\Desktop\firebreath-FireBreath-firebreath-1.7.0-12-g105dcc6\firebreath-FireBreath-105dcc6" /I"C:\Users\blackey\Desktop\firebreath-FireBreath-firebreath-1.7.0-12-g105dcc6\firebreath-FireBreath-105dcc6\src\3rdParty\gecko-sdk\includes" /I"C:\Users\blackey\Desktop\firebreath-FireBreath-firebreath-1.7.0-12-g105dcc6\firebreath-FireBreath-105dcc6\src\NpapiCore" /I"C:\Users\blackey\Desktop\firebreath-FireBreath-firebreath-1.7.0-12-g105dcc6\firebreath-FireBreath-105dcc6\src\ActiveXCore" /I"C:\Users\blackey\Desktop\firebreath-FireBreath-firebreath-1.7.0-12-g105dcc6\firebreath-FireBreath-105dcc6\src\ScriptingCore" /I"C:\Users\blackey\Desktop\firebreath-FireBreath-firebreath-1.7.0-12-g105dcc6\firebreath-FireBreath-105dcc6\src\PluginAuto\Win" /I"C:\Users\blackey\Desktop\firebreath-FireBreath-firebreath-1.7.0-12-g105dcc6\firebreath-FireBreath-105dcc6\src\PluginAuto" /I"C:\Users\blackey\Desktop\firebreath-FireBreath-firebreath-1.7.0-12-g105dcc6\firebreath-FireBreath-105dcc6\src\PluginCore" /I"C:\Users\blackey\Desktop\firebreath-FireBreath-firebreath-1.7.0-12-g105dcc6\firebreath-FireBreath-105dcc6\build\projects\Ananas\gen" /I"C:\Users\blackey\Desktop\firebreath-FireBreath-firebreath-1.7.0-12-g105dcc6\firebreath-FireBreath-105dcc6\src\3rdParty\boost" /I"C:\Program Files\Microsoft Visual Studio 10.0\VC\atlmfc\include" /I"C:\Users\blackey\Desktop\firebreath-FireBreath-firebreath-1.7.0-12-g105dcc6\firebreath-FireBreath-105dcc6\src\config" /I"C:\Program Files\Pelco\API\Include\C++" /I"C:\Users\blackey\Desktop\firebreath-FireBreath-firebreath-1.7.0-12-g105dcc6\firebreath-FireBreath-105dcc6\build\projects\Ananas\\" /Zi /nologo /W3 /WX- /Od /Oy- /D WIN32 /D _WINDLL /D FB_WIN=1 /D XP_WIN=1 /D UNICODE /D _UNICODE /D _WINDOWS /D BOOST_ALL_NO_LIB=1 /D DEBUG /D _DEBUG /D _ATL_STATIC_REGISTRY /D "CMAKE_INTDIR=\"Debug\"" /D Ananas_EXPORTS /D _WINDLL /D _UNICODE /D UNICODE /GF /Gm /EHsc /RTC1 /MTd /GS /fp:precise /Zc:wchar_t /Zc:forScope /Fo"Ananas.dir\Debug\\" /Fd"Ananas.dir\Debug\vc100.pdb" /Gd /TP /wd4996 /wd4290 /analyze- /errorReport:prompt  /Zm256  C:\USERS\BLACKEY\DESKTOP\FIREBREATH-FIREBREATH-FIREBREATH-1.7.0-12-G105DCC6\FIREBREATH-FIREBREATH-105DCC6\BUILD\PROJECTS\ANANAS\SDKWRAPPER.CPP
^C:\USERS\BLACKEY\DESKTOP\FIREBREATH-FIREBREATH-FIREBREATH-1.7.0-12-G105DCC6\FIREBREATH-FIREBREATH-105DCC6\PROJECTS\ANANAS\ANANAS.CPP
/c /I"C:\Users\blackey\Desktop\firebreath-FireBreath-firebreath-1.7.0-12-g105dcc6\firebreath-FireBreath-105dcc6" /I"C:\Users\blackey\Desktop\firebreath-FireBreath-firebreath-1.7.0-12-g105dcc6\firebreath-FireBreath-105dcc6\src\3rdParty\gecko-sdk\includes" /I"C:\Users\blackey\Desktop\firebreath-FireBreath-firebreath-1.7.0-12-g105dcc6\firebreath-FireBreath-105dcc6\src\NpapiCore" /I"C:\Users\blackey\Desktop\firebreath-FireBreath-firebreath-1.7.0-12-g105dcc6\firebreath-FireBreath-105dcc6\src\ActiveXCore" /I"C:\Users\blackey\Desktop\firebreath-FireBreath-firebreath-1.7.0-12-g105dcc6\firebreath-FireBreath-105dcc6\src\ScriptingCore" /I"C:\Users\blackey\Desktop\firebreath-FireBreath-firebreath-1.7.0-12-g105dcc6\firebreath-FireBreath-105dcc6\src\PluginAuto\Win" /I"C:\Users\blackey\Desktop\firebreath-FireBreath-firebreath-1.7.0-12-g105dcc6\firebreath-FireBreath-105dcc6\src\PluginAuto" /I"C:\Users\blackey\Desktop\firebreath-FireBreath-firebreath-1.7.0-12-g105dcc6\firebreath-FireBreath-105dcc6\src\PluginCore" /I"C:\Users\blackey\Desktop\firebreath-FireBreath-firebreath-1.7.0-12-g105dcc6\firebreath-FireBreath-105dcc6\build\projects\Ananas\gen" /I"C:\Users\blackey\Desktop\firebreath-FireBreath-firebreath-1.7.0-12-g105dcc6\firebreath-FireBreath-105dcc6\src\3rdParty\boost" /I"C:\Program Files\Microsoft Visual Studio 10.0\VC\atlmfc\include" /I"C:\Users\blackey\Desktop\firebreath-FireBreath-firebreath-1.7.0-12-g105dcc6\firebreath-FireBreath-105dcc6\src\config" /I"C:\Program Files\Pelco\API\Include\C++" /I"C:\Users\blackey\Desktop\firebreath-FireBreath-firebreath-1.7.0-12-g105dcc6\firebreath-FireBreath-105dcc6\build\projects\Ananas\\" /Zi /nologo /W3 /WX- /Od /Oy- /D WIN32 /D _WINDLL /D FB_WIN=1 /D XP_WIN=1 /D UNICODE /D _UNICODE /D _WINDOWS /D BOOST_ALL_NO_LIB=1 /D DEBUG /D _DEBUG /D _ATL_STATIC_REGISTRY /D "CMAKE_INTDIR=\"Debug\"" /D Ananas_EXPORTS /D _WINDLL /D _UNICODE /D UNICODE /GF /Gm /EHsc /RTC1 /MTd /GS /fp:precise /Zc:wchar_t /Zc:forScope /Fo"Ananas.dir\Debug\\" /Fd"Ananas.dir\Debug\vc100.pdb" /Gd /TP /wd4996 /wd4290 /analyze- /errorReport:prompt  /Zm256  C:\USERS\BLACKEY\DESKTOP\FIREBREATH-FIREBREATH-FIREBREATH-1.7.0-12-G105DCC6\FIREBREATH-FIREBREATH-105DCC6\PROJECTS\ANANAS\ANANAS.CPP
^C:\USERS\BLACKEY\DESKTOP\FIREBREATH-FIREBREATH-FIREBREATH-1.7.0-12-G105DCC6\FIREBREATH-FIREBREATH-105DCC6\PROJECTS\ANANAS\ANANASAPI.CPP
/c /I"C:\Users\blackey\Desktop\firebreath-FireBreath-firebreath-1.7.0-12-g105dcc6\firebreath-FireBreath-105dcc6" /I"C:\Users\blackey\Desktop\firebreath-FireBreath-firebreath-1.7.0-12-g105dcc6\firebreath-FireBreath-105dcc6\src\3rdParty\gecko-sdk\includes" /I"C:\Users\blackey\Desktop\firebreath-FireBreath-firebreath-1.7.0-12-g105dcc6\firebreath-FireBreath-105dcc6\src\NpapiCore" /I"C:\Users\blackey\Desktop\firebreath-FireBreath-firebreath-1.7.0-12-g105dcc6\firebreath-FireBreath-105dcc6\src\ActiveXCore" /I"C:\Users\blackey\Desktop\firebreath-FireBreath-firebreath-1.7.0-12-g105dcc6\firebreath-FireBreath-105dcc6\src\ScriptingCore" /I"C:\Users\blackey\Desktop\firebreath-FireBreath-firebreath-1.7.0-12-g105dcc6\firebreath-FireBreath-105dcc6\src\PluginAuto\Win" /I"C:\Users\blackey\Desktop\firebreath-FireBreath-firebreath-1.7.0-12-g105dcc6\firebreath-FireBreath-105dcc6\src\PluginAuto" /I"C:\Users\blackey\Desktop\firebreath-FireBreath-firebreath-1.7.0-12-g105dcc6\firebreath-FireBreath-105dcc6\src\PluginCore" /I"C:\Users\blackey\Desktop\firebreath-FireBreath-firebreath-1.7.0-12-g105dcc6\firebreath-FireBreath-105dcc6\build\projects\Ananas\gen" /I"C:\Users\blackey\Desktop\firebreath-FireBreath-firebreath-1.7.0-12-g105dcc6\firebreath-FireBreath-105dcc6\src\3rdParty\boost" /I"C:\Program Files\Microsoft Visual Studio 10.0\VC\atlmfc\include" /I"C:\Users\blackey\Desktop\firebreath-FireBreath-firebreath-1.7.0-12-g105dcc6\firebreath-FireBreath-105dcc6\src\config" /I"C:\Program Files\Pelco\API\Include\C++" /I"C:\Users\blackey\Desktop\firebreath-FireBreath-firebreath-1.7.0-12-g105dcc6\firebreath-FireBreath-105dcc6\build\projects\Ananas\\" /Zi /nologo /W3 /WX- /Od /Oy- /D WIN32 /D _WINDLL /D FB_WIN=1 /D XP_WIN=1 /D UNICODE /D _UNICODE /D _WINDOWS /D BOOST_ALL_NO_LIB=1 /D DEBUG /D _DEBUG /D _ATL_STATIC_REGISTRY /D "CMAKE_INTDIR=\"Debug\"" /D Ananas_EXPORTS /D _WINDLL /D _UNICODE /D UNICODE /GF /Gm /EHsc /RTC1 /MTd /GS /fp:precise /Zc:wchar_t /Zc:forScope /Fo"Ananas.dir\Debug\\" /Fd"Ananas.dir\Debug\vc100.pdb" /Gd /TP /wd4996 /wd4290 /analyze- /errorReport:prompt  /Zm256  C:\USERS\BLACKEY\DESKTOP\FIREBREATH-FIREBREATH-FIREBREATH-1.7.0-12-G105DCC6\FIREBREATH-FIREBREATH-105DCC6\PROJECTS\ANANAS\ANANASAPI.CPP
^C:\USERS\BLACKEY\DESKTOP\FIREBREATH-FIREBREATH-FIREBREATH-1.7.0-12-G105DCC6\FIREBREATH-FIREBREATH-105DCC6\PROJECTS\ANANAS\FACTORY.CPP
/c /I"C:\Users\blackey\Desktop\firebreath-FireBreath-firebreath-1.7.0-12-g105dcc6\firebreath-FireBreath-105dcc6" /I"C:\Users\blackey\Desktop\firebreath-FireBreath-firebreath-1.7.0-12-g105dcc6\firebreath-FireBreath-105dcc6\src\3rdParty\gecko-sdk\includes" /I"C:\Users\blackey\Desktop\firebreath-FireBreath-firebreath-1.7.0-12-g105dcc6\firebreath-FireBreath-105dcc6\src\NpapiCore" /I"C:\Users\blackey\Desktop\firebreath-FireBreath-firebreath-1.7.0-12-g105dcc6\firebreath-FireBreath-105dcc6\src\ActiveXCore" /I"C:\Users\blackey\Desktop\firebreath-FireBreath-firebreath-1.7.0-12-g105dcc6\firebreath-FireBreath-105dcc6\src\ScriptingCore" /I"C:\Users\blackey\Desktop\firebreath-FireBreath-firebreath-1.7.0-12-g105dcc6\firebreath-FireBreath-105dcc6\src\PluginAuto\Win" /I"C:\Users\blackey\Desktop\firebreath-FireBreath-firebreath-1.7.0-12-g105dcc6\firebreath-FireBreath-105dcc6\src\PluginAuto" /I"C:\Users\blackey\Desktop\firebreath-FireBreath-firebreath-1.7.0-12-g105dcc6\firebreath-FireBreath-105dcc6\src\PluginCore" /I"C:\Users\blackey\Desktop\firebreath-FireBreath-firebreath-1.7.0-12-g105dcc6\firebreath-FireBreath-105dcc6\build\projects\Ananas\gen" /I"C:\Users\blackey\Desktop\firebreath-FireBreath-firebreath-1.7.0-12-g105dcc6\firebreath-FireBreath-105dcc6\src\3rdParty\boost" /I"C:\Program Files\Microsoft Visual Studio 10.0\VC\atlmfc\include" /I"C:\Users\blackey\Desktop\firebreath-FireBreath-firebreath-1.7.0-12-g105dcc6\firebreath-FireBreath-105dcc6\src\config" /I"C:\Program Files\Pelco\API\Include\C++" /I"C:\Users\blackey\Desktop\firebreath-FireBreath-firebreath-1.7.0-12-g105dcc6\firebreath-FireBreath-105dcc6\build\projects\Ananas\\" /Zi /nologo /W3 /WX- /Od /Oy- /D WIN32 /D _WINDLL /D FB_WIN=1 /D XP_WIN=1 /D UNICODE /D _UNICODE /D _WINDOWS /D BOOST_ALL_NO_LIB=1 /D DEBUG /D _DEBUG /D _ATL_STATIC_REGISTRY /D "CMAKE_INTDIR=\"Debug\"" /D Ananas_EXPORTS /D _WINDLL /D _UNICODE /D UNICODE /GF /Gm /EHsc /RTC1 /MTd /GS /fp:precise /Zc:wchar_t /Zc:forScope /Fo"Ananas.dir\Debug\\" /Fd"Ananas.dir\Debug\vc100.pdb" /Gd /TP /wd4996 /wd4290 /analyze- /errorReport:prompt  /Zm256  C:\USERS\BLACKEY\DESKTOP\FIREBREATH-FIREBREATH-FIREBREATH-1.7.0-12-G105DCC6\FIREBREATH-FIREBREATH-105DCC6\PROJECTS\ANANAS\FACTORY.CPP
