^C:\USERS\BLACKEY\DESKTOP\FIREBREATH-FIREBREATH-FIREBREATH-1.7.0-12-G105DCC6\FIREBREATH-FIREBREATH-105DCC6\BUILD\PROJECTS\ANANAS\ANANAS.DIR\DEBUG\ANANAS.OBJ|C:\USERS\BLACKEY\DESKTOP\FIREBREATH-FIREBREATH-FIREBREATH-1.7.0-12-G105DCC6\FIREBREATH-FIREBREATH-105DCC6\BUILD\PROJECTS\ANANAS\ANANAS.DIR\DEBUG\ANANASAPI.OBJ|C:\USERS\BLACKEY\DESKTOP\FIREBREATH-FIREBREATH-FIREBREATH-1.7.0-12-G105DCC6\FIREBREATH-FIREBREATH-105DCC6\BUILD\PROJECTS\ANANAS\ANANAS.DIR\DEBUG\CREDENTIALS.OBJ|C:\USERS\BLACKEY\DESKTOP\FIREBREATH-FIREBREATH-FIREBREATH-1.7.0-12-G105DCC6\FIREBREATH-FIREBREATH-105DCC6\BUILD\PROJECTS\ANANAS\ANANAS.DIR\DEBUG\FACTORY.OBJ|C:\USERS\BLACKEY\DESKTOP\FIREBREATH-FIREBREATH-FIREBREATH-1.7.0-12-G105DCC6\FIREBREATH-FIREBREATH-105DCC6\BUILD\PROJECTS\ANANAS\ANANAS.DIR\DEBUG\FIREBREATHWIN.RES|C:\USERS\BLACKEY\DESKTOP\FIREBREATH-FIREBREATH-FIREBREATH-1.7.0-12-G105DCC6\FIREBREATH-FIREBREATH-105DCC6\BUILD\PROJECTS\ANANAS\ANANAS.DIR\DEBUG\MD5.OBJ|C:\USERS\BLACKEY\DESKTOP\FIREBREATH-FIREBREATH-FIREBREATH-1.7.0-12-G105DCC6\FIREBREATH-FIREBREATH-105DCC6\BUILD\PROJECTS\ANANAS\ANANAS.DIR\DEBUG\NPANANAS.DLL.EMBED.MANIFEST.RES|C:\USERS\BLACKEY\DESKTOP\FIREBREATH-FIREBREATH-FIREBREATH-1.7.0-12-G105DCC6\FIREBREATH-FIREBREATH-105DCC6\BUILD\PROJECTS\ANANAS\ANANAS.DIR\DEBUG\SDKWRAPPER.OBJ
/ERRORREPORT:PROMPT /OUT:"C:\Users\blackey\Desktop\firebreath-FireBreath-firebreath-1.7.0-12-g105dcc6\firebreath-FireBreath-105dcc6\build\bin\Ananas\Debug\npAnanas.dll" /INCREMENTAL /NOLOGO /LIBPATH:"C:/Program Files/Microsoft Visual Studio 10.0/VC/atlmfc/lib" /LIBPATH:"C:\Program Files\Pelco\API\Libs\Debug\\" kernel32.lib user32.lib gdi32.lib winspool.lib shell32.lib ole32.lib oleaut32.lib uuid.lib comdlg32.lib advapi32.lib psapi.lib ..\..\ActiveXCore\Debug\ActiveXCore.lib ..\..\PluginCore\Debug\PluginCore.lib PluginAuto\Debug\ANA_PluginAuto.lib ..\..\NpapiCore\Debug\NpapiCore.lib ..\..\ScriptingCore\Debug\ScriptingCore.lib ..\..\boost\libs\thread\Debug\boost_thread.lib ..\..\boost\libs\system\Debug\boost_system.lib Wininet.lib PelcoSDK.lib PTZControlWrapper.lib /DEF:"C:/Users/blackey/Desktop/firebreath-FireBreath-firebreath-1.7.0-12-g105dcc6/firebreath-FireBreath-105dcc6/build/projects/Ananas/gen/FireBreathWin.def" /MANIFEST /ManifestFile:"Ananas.dir\Debug\npAnanas.dll.intermediate.manifest" /MANIFESTUAC:"level='asInvoker' uiAccess='false'" /DEBUG /PDB:"C:/Users/blackey/Desktop/firebreath-FireBreath-firebreath-1.7.0-12-g105dcc6/firebreath-FireBreath-105dcc6/build/bin/Ananas/Debug/npAnanas.pdb" /SUBSYSTEM:WINDOWS /TLBID:1 /DYNAMICBASE /NXCOMPAT /IMPLIB:"C:/Users/blackey/Desktop/firebreath-FireBreath-firebreath-1.7.0-12-g105dcc6/firebreath-FireBreath-105dcc6/build/projects/Ananas/Debug/npAnanas.lib" /MACHINE:X86 /DLL Ananas.dir\Debug\firebreathWin.res
Ananas.dir\Debug\npAnanas.dll.embed.manifest.res
Ananas.dir\Debug\Credentials.obj
Ananas.dir\Debug\MD5.obj
Ananas.dir\Debug\SdkWrapper.obj
Ananas.dir\Debug\Ananas.obj
Ananas.dir\Debug\AnanasAPI.obj
Ananas.dir\Debug\Factory.obj  /machine:X86 /debug 
