^C:\USERS\BLACKEY\DESKTOP\FIREBREATH-FIREBREATH-FIREBREATH-1.7.0-12-G105DCC6\FIREBREATH-FIREBREATH-105DCC6\BUILD\PROJECTS\ANANAS\ANANAS.DIR\DEBUG\ANANAS.OBJ|C:\USERS\BLACKEY\DESKTOP\FIREBREATH-FIREBREATH-FIREBREATH-1.7.0-12-G105DCC6\FIREBREATH-FIREBREATH-105DCC6\BUILD\PROJECTS\ANANAS\ANANAS.DIR\DEBUG\ANANASAPI.OBJ|C:\USERS\BLACKEY\DESKTOP\FIREBREATH-FIREBREATH-FIREBREATH-1.7.0-12-G105DCC6\FIREBREATH-FIREBREATH-105DCC6\BUILD\PROJECTS\ANANAS\ANANAS.DIR\DEBUG\CREDENTIALS.OBJ|C:\USERS\BLACKEY\DESKTOP\FIREBREATH-FIREBREATH-FIREBREATH-1.7.0-12-G105DCC6\FIREBREATH-FIREBREATH-105DCC6\BUILD\PROJECTS\ANANAS\ANANAS.DIR\DEBUG\FACTORY.OBJ|C:\USERS\BLACKEY\DESKTOP\FIREBREATH-FIREBREATH-FIREBREATH-1.7.0-12-G105DCC6\FIREBREATH-FIREBREATH-105DCC6\BUILD\PROJECTS\ANANAS\ANANAS.DIR\DEBUG\FIREBREATHWIN.RES|C:\USERS\BLACKEY\DESKTOP\FIREBREATH-FIREBREATH-FIREBREATH-1.7.0-12-G105DCC6\FIREBREATH-FIREBREATH-105DCC6\BUILD\PROJECTS\ANANAS\ANANAS.DIR\DEBUG\MD5.OBJ|C:\USERS\BLACKEY\DESKTOP\FIREBREATH-FIREBREATH-FIREBREATH-1.7.0-12-G105DCC6\FIREBREATH-FIREBREATH-105DCC6\BUILD\PROJECTS\ANANAS\ANANAS.DIR\DEBUG\NPANANAS.DLL.EMBED.MANIFEST.RES|C:\USERS\BLACKEY\DESKTOP\FIREBREATH-FIREBREATH-FIREBREATH-1.7.0-12-G105DCC6\FIREBREATH-FIREBREATH-105DCC6\BUILD\PROJECTS\ANANAS\ANANAS.DIR\DEBUG\SDKWRAPPER.OBJ
C:\USERS\BLACKEY\DESKTOP\FIREBREATH-FIREBREATH-FIREBREATH-1.7.0-12-G105DCC6\FIREBREATH-FIREBREATH-105DCC6\BUILD\BIN\ANANAS\DEBUG\NPANANAS.ILK
C:\USERS\BLACKEY\DESKTOP\FIREBREATH-FIREBREATH-FIREBREATH-1.7.0-12-G105DCC6\FIREBREATH-FIREBREATH-105DCC6\BUILD\BIN\ANANAS\DEBUG\NPANANAS.DLL
C:\USERS\BLACKEY\DESKTOP\FIREBREATH-FIREBREATH-FIREBREATH-1.7.0-12-G105DCC6\FIREBREATH-FIREBREATH-105DCC6\BUILD\PROJECTS\ANANAS\ANANAS.DIR\DEBUG\NPANANAS.DLL.INTERMEDIATE.MANIFEST
C:\USERS\BLACKEY\DESKTOP\FIREBREATH-FIREBREATH-FIREBREATH-1.7.0-12-G105DCC6\FIREBREATH-FIREBREATH-105DCC6\BUILD\BIN\ANANAS\DEBUG\NPANANAS.PDB
