C:\Users\blackey\Desktop\firebreath-FireBreath-firebreath-1.7.0-12-g105dcc6\firebreath-FireBreath-105dcc6\build\bin\Ananas\Debug\npAnanas.pdb
C:\USERS\BLACKEY\DESKTOP\FIREBREATH-FIREBREATH-FIREBREATH-1.7.0-12-G105DCC6\FIREBREATH-FIREBREATH-105DCC6\BUILD\PROJECTS\ANANAS\ANANAS.DIR\DEBUG\ANANAS.OBJ
C:\Users\blackey\Desktop\firebreath-FireBreath-firebreath-1.7.0-12-g105dcc6\firebreath-FireBreath-105dcc6\build\projects\Ananas\Ananas.dir\Debug\Ananas.write.1.tlog
C:\USERS\BLACKEY\DESKTOP\FIREBREATH-FIREBREATH-FIREBREATH-1.7.0-12-G105DCC6\FIREBREATH-FIREBREATH-105DCC6\BUILD\PROJECTS\ANANAS\ANANAS.DIR\DEBUG\ANANASAPI.OBJ
C:\Users\blackey\Desktop\firebreath-FireBreath-firebreath-1.7.0-12-g105dcc6\firebreath-FireBreath-105dcc6\build\projects\Ananas\Ananas.dir\Debug\cl.command.1.tlog
C:\Users\blackey\Desktop\firebreath-FireBreath-firebreath-1.7.0-12-g105dcc6\firebreath-FireBreath-105dcc6\build\projects\Ananas\Ananas.dir\Debug\CL.read.1.tlog
C:\Users\blackey\Desktop\firebreath-FireBreath-firebreath-1.7.0-12-g105dcc6\firebreath-FireBreath-105dcc6\build\projects\Ananas\Ananas.dir\Debug\CL.write.1.tlog
C:\USERS\BLACKEY\DESKTOP\FIREBREATH-FIREBREATH-FIREBREATH-1.7.0-12-G105DCC6\FIREBREATH-FIREBREATH-105DCC6\BUILD\PROJECTS\ANANAS\ANANAS.DIR\DEBUG\CREDENTIALS.OBJ
C:\Users\blackey\Desktop\firebreath-FireBreath-firebreath-1.7.0-12-g105dcc6\firebreath-FireBreath-105dcc6\build\projects\Ananas\Ananas.dir\Debug\custombuild.command.1.tlog
C:\Users\blackey\Desktop\firebreath-FireBreath-firebreath-1.7.0-12-g105dcc6\firebreath-FireBreath-105dcc6\build\projects\Ananas\Ananas.dir\Debug\custombuild.read.1.tlog
C:\Users\blackey\Desktop\firebreath-FireBreath-firebreath-1.7.0-12-g105dcc6\firebreath-FireBreath-105dcc6\build\projects\Ananas\Ananas.dir\Debug\custombuild.write.1.tlog
C:\USERS\BLACKEY\DESKTOP\FIREBREATH-FIREBREATH-FIREBREATH-1.7.0-12-G105DCC6\FIREBREATH-FIREBREATH-105DCC6\BUILD\PROJECTS\ANANAS\ANANAS.DIR\DEBUG\FACTORY.OBJ
C:\USERS\BLACKEY\DESKTOP\FIREBREATH-FIREBREATH-FIREBREATH-1.7.0-12-G105DCC6\FIREBREATH-FIREBREATH-105DCC6\BUILD\PROJECTS\ANANAS\ANANAS.DIR\DEBUG\FIREBREATHWIN.RES
C:\Users\blackey\Desktop\firebreath-FireBreath-firebreath-1.7.0-12-g105dcc6\firebreath-FireBreath-105dcc6\build\projects\Ananas\Ananas.dir\Debug\link.9224.read.1.tlog
C:\Users\blackey\Desktop\firebreath-FireBreath-firebreath-1.7.0-12-g105dcc6\firebreath-FireBreath-105dcc6\build\projects\Ananas\Ananas.dir\Debug\link.9224.write.1.tlog
C:\Users\blackey\Desktop\firebreath-FireBreath-firebreath-1.7.0-12-g105dcc6\firebreath-FireBreath-105dcc6\build\projects\Ananas\Ananas.dir\Debug\link.9516.read.1.tlog
C:\Users\blackey\Desktop\firebreath-FireBreath-firebreath-1.7.0-12-g105dcc6\firebreath-FireBreath-105dcc6\build\projects\Ananas\Ananas.dir\Debug\link.9516.write.1.tlog
C:\Users\blackey\Desktop\firebreath-FireBreath-firebreath-1.7.0-12-g105dcc6\firebreath-FireBreath-105dcc6\build\projects\Ananas\Ananas.dir\Debug\link.9516-cvtres.read.1.tlog
C:\Users\blackey\Desktop\firebreath-FireBreath-firebreath-1.7.0-12-g105dcc6\firebreath-FireBreath-105dcc6\build\projects\Ananas\Ananas.dir\Debug\link.9516-cvtres.write.1.tlog
C:\Users\blackey\Desktop\firebreath-FireBreath-firebreath-1.7.0-12-g105dcc6\firebreath-FireBreath-105dcc6\build\projects\Ananas\Ananas.dir\Debug\link.command.1.tlog
C:\Users\blackey\Desktop\firebreath-FireBreath-firebreath-1.7.0-12-g105dcc6\firebreath-FireBreath-105dcc6\build\projects\Ananas\Ananas.dir\Debug\link.read.1.tlog
C:\Users\blackey\Desktop\firebreath-FireBreath-firebreath-1.7.0-12-g105dcc6\firebreath-FireBreath-105dcc6\build\projects\Ananas\Ananas.dir\Debug\link.write.1.tlog
C:\Users\blackey\Desktop\firebreath-FireBreath-firebreath-1.7.0-12-g105dcc6\firebreath-FireBreath-105dcc6\build\projects\Ananas\Ananas.dir\Debug\link-cvtres.read.1.tlog
C:\Users\blackey\Desktop\firebreath-FireBreath-firebreath-1.7.0-12-g105dcc6\firebreath-FireBreath-105dcc6\build\projects\Ananas\Ananas.dir\Debug\link-cvtres.write.1.tlog
C:\USERS\BLACKEY\DESKTOP\FIREBREATH-FIREBREATH-FIREBREATH-1.7.0-12-G105DCC6\FIREBREATH-FIREBREATH-105DCC6\BUILD\PROJECTS\ANANAS\ANANAS.DIR\DEBUG\MD5.OBJ
C:\Users\blackey\Desktop\firebreath-FireBreath-firebreath-1.7.0-12-g105dcc6\firebreath-FireBreath-105dcc6\build\projects\Ananas\Ananas.dir\Debug\mt.command.1.tlog
C:\Users\blackey\Desktop\firebreath-FireBreath-firebreath-1.7.0-12-g105dcc6\firebreath-FireBreath-105dcc6\build\projects\Ananas\Ananas.dir\Debug\mt.read.1.tlog
C:\Users\blackey\Desktop\firebreath-FireBreath-firebreath-1.7.0-12-g105dcc6\firebreath-FireBreath-105dcc6\build\projects\Ananas\Ananas.dir\Debug\mt.write.1.tlog
C:\USERS\BLACKEY\DESKTOP\FIREBREATH-FIREBREATH-FIREBREATH-1.7.0-12-G105DCC6\FIREBREATH-FIREBREATH-105DCC6\BUILD\PROJECTS\ANANAS\ANANAS.DIR\DEBUG\NPANANAS.DLL.EMBED.MANIFEST
C:\USERS\BLACKEY\DESKTOP\FIREBREATH-FIREBREATH-FIREBREATH-1.7.0-12-G105DCC6\FIREBREATH-FIREBREATH-105DCC6\BUILD\PROJECTS\ANANAS\ANANAS.DIR\DEBUG\NPANANAS.DLL.EMBED.MANIFEST.RES
C:\Users\blackey\Desktop\firebreath-FireBreath-firebreath-1.7.0-12-g105dcc6\firebreath-FireBreath-105dcc6\build\projects\Ananas\Ananas.dir\Debug\npAnanas.dll.intermediate.manifest
C:\Users\blackey\Desktop\firebreath-FireBreath-firebreath-1.7.0-12-g105dcc6\firebreath-FireBreath-105dcc6\build\projects\Ananas\Ananas.dir\Debug\npAnanas_manifest.rc
C:\Users\blackey\Desktop\firebreath-FireBreath-firebreath-1.7.0-12-g105dcc6\firebreath-FireBreath-105dcc6\build\projects\Ananas\Ananas.dir\Debug\rc.command.1.tlog
C:\Users\blackey\Desktop\firebreath-FireBreath-firebreath-1.7.0-12-g105dcc6\firebreath-FireBreath-105dcc6\build\projects\Ananas\Ananas.dir\Debug\rc.read.1.tlog
C:\Users\blackey\Desktop\firebreath-FireBreath-firebreath-1.7.0-12-g105dcc6\firebreath-FireBreath-105dcc6\build\projects\Ananas\Ananas.dir\Debug\rc.write.1.tlog
C:\USERS\BLACKEY\DESKTOP\FIREBREATH-FIREBREATH-FIREBREATH-1.7.0-12-G105DCC6\FIREBREATH-FIREBREATH-105DCC6\BUILD\PROJECTS\ANANAS\ANANAS.DIR\DEBUG\SDKWRAPPER.OBJ
C:\Users\blackey\Desktop\firebreath-FireBreath-firebreath-1.7.0-12-g105dcc6\firebreath-FireBreath-105dcc6\build\projects\Ananas\Ananas.dir\Debug\vc100.idb
C:\USERS\BLACKEY\DESKTOP\FIREBREATH-FIREBREATH-FIREBREATH-1.7.0-12-G105DCC6\FIREBREATH-FIREBREATH-105DCC6\BUILD\PROJECTS\ANANAS\ANANAS.DIR\DEBUG\VC100.PDB
C:\USERS\BLACKEY\DESKTOP\FIREBREATH-FIREBREATH-FIREBREATH-1.7.0-12-G105DCC6\FIREBREATH-FIREBREATH-105DCC6\BUILD\PROJECTS\ANANAS\CMAKEFILES\GENERATE.STAMP
C:\Users\blackey\Desktop\firebreath-FireBreath-firebreath-1.7.0-12-g105dcc6\firebreath-FireBreath-105dcc6\build\projects\Ananas\Debug\npAnanas.exp
C:\Users\blackey\Desktop\firebreath-FireBreath-firebreath-1.7.0-12-g105dcc6\firebreath-FireBreath-105dcc6\build\projects\Ananas\Debug\npAnanas.lib
